STA 9750 — Mini-Project 01 – STA 9750 Submission Material
…
# Show countries with fewer than 200 weeks (the one-of-interest)
# # the country (or countries) that have < 200 weeks
countries_under_200 <- weeks_by_country |>
  filter(total_weeks < 200)

#print
weeks_by_country    

# A tibble: 94 × 4
   country_name total_weeks first_week last_week 
   <chr>              <int> <date>     <date>    
 1 Russia                35 2021-07-04 2022-02-27
 2 Argentina            220 2021-07-04 2025-09-14
 3 Australia            220 2021-07-04 2025-09-14
 4 Austria              220 2021-07-04 2025-09-14
 5 Bahamas              220 2021-07-04 2025-09-14
 6 Bahrain              220 2021-07-04 2025-09-14
 7 Bangladesh           220 2021-07-04 2025-09-14
 8 Belgium              220 2021-07-04 2025-09-14
 9 Bolivia              220 2021-07-04 2025-09-14
10 Brazil               220 2021-07-04 2025-09-14
# ℹ 84 more rows
…
